%YAML 1.1
%TAG !u! tag:unity3d.com,2011:
--- !u!114 &11400000
MonoBehaviour:
  m_ObjectHideFlags: 0
  m_CorrespondingSourceObject: {fileID: 0}
  m_PrefabInstance: {fileID: 0}
  m_PrefabAsset: {fileID: 0}
  m_GameObject: {fileID: 0}
  m_Enabled: 1
  m_EditorHideFlags: 0
  m_Script: {fileID: 11500000, guid: f1554d5e396ac764b9839755b54deec8, type: 3}
  m_Name: Config Links
  m_EditorClassIdentifier: 
  m_debugDrawConfig: {fileID: 11400000, guid: 2f05acb761a1bb94fbd27e30943889d1, type: 2}
  m_spawnInitConfig: {fileID: 11400000, guid: a5856190e2692c840923420fc6b4dc39, type: 2}
  m_collisionsConfig: {fileID: 11400000, guid: 4f356b1f102b57f4e8049f1f7b177dce, type: 2}
  m_prefabLinks: {fileID: 11400000, guid: 887885c8a4348b541baf14ab6c300743, type: 2}
  m_sceneLinks: {fileID: 11400000, guid: 6451a4a514d44d845ae134c0222d6cea, type: 2}
  m_dialogueConfig: {fileID: 11400000, guid: b18ca6c5249b05641b15d7c16dbb3deb, type: 2}
  m_debugDrawUsedConfigs: 0
