{
    "name": "DefaultInput",
    "maps": [
        {
            "name": "Menu",
            "id": "e95b12ed-35cb-4c1c-8b1e-cbe37caa099b",
            "actions": [
                {
                    "name": "Confirm",
                    "type": "Button",
                    "id": "e82068b2-34c6-4371-9fe3-f6063ba35f76",
                    "expectedControlType": "Button",
                    "processors": "",
                    "interactions": ""
                },
                {
                    "name": "Navigate",
                    "type": "Value",
                    "id": "21d585d7-301c-4fd4-9736-fda8a44186a9",
                    "expectedControlType": "Vector2",
                    "processors": "",
                    "interactions": ""
                },
                {
                    "name": "Cancel",
                    "type": "Button",
                    "id": "ddbcce48-0007-4b98-996d-393c5a9b5294",
                    "expectedControlType": "Button",
                    "processors": "",
                    "interactions": ""
                },
                {
                    "name": "Point",
                    "type": "PassThrough",
                    "id": "71e96b3d-9223-4df6-93c2-993be2bc9359",
                    "expectedControlType": "Vector2",
                    "processors": "",
                    "interactions": ""
                },
                {
                    "name": "Click",
                    "type": "PassThrough",
                    "id": "3b91dab9-a0cb-4086-9455-1c2067e410d3",
                    "expectedControlType": "Button",
                    "processors": "",
                    "interactions": ""
                },
                {
                    "name": "GoBack",
                    "type": "PassThrough",
                    "id": "655e2bb1-6c7b-443d-ab7a-9d1c6142fd49",
                    "expectedControlType": "",
                    "processors": "",
                    "interactions": ""
                },
                {
                    "name": "Pause",
                    "type": "Button",
                    "id": "311df200-74e5-428d-8bf2-1137dcad39f7",
                    "expectedControlType": "Button",
                    "processors": "",
                    "interactions": ""
                }
            ],
            "bindings": [
                {
                    "name": "",
                    "id": "ecc2701e-682c-45d3-b69b-0ea23961a6de",
                    "path": "<Keyboard>/enter",
                    "interactions": "",
                    "processors": "",
                    "groups": "Keyboard",
                    "action": "Confirm",
                    "isComposite": false,
                    "isPartOfComposite": false
                },
                {
                    "name": "",
                    "id": "e2b1709f-b580-4fc1-8da1-cf6677f1e39d",
                    "path": "<Gamepad>/buttonSouth",
                    "interactions": "",
                    "processors": "",
                    "groups": "Gamepad",
                    "action": "Confirm",
                    "isComposite": false,
                    "isPartOfComposite": false
                },
                {
                    "name": "",
                    "id": "1d6c7858-a09a-4109-bc03-24bab0aa6656",
                    "path": "<Gamepad>/start",
                    "interactions": "",
                    "processors": "",
                    "groups": "Gamepad",
                    "action": "Confirm",
                    "isComposite": false,
                    "isPartOfComposite": false
                },
                {
                    "name": "",
                    "id": "2efbb88f-48ff-475d-9a66-f0a48289fa5e",
                    "path": "<Gamepad>/dpad",
                    "interactions": "",
                    "processors": "",
                    "groups": "Gamepad",
                    "action": "Navigate",
                    "isComposite": false,
                    "isPartOfComposite": false
                },
                {
                    "name": "Stick",
                    "id": "babff74b-e5d4-4463-ae67-41274a35a0b4",
                    "path": "2DVector",
                    "interactions": "Press",
                    "processors": "",
                    "groups": "",
                    "action": "Navigate",
                    "isComposite": true,
                    "isPartOfComposite": false
                },
                {
                    "name": "up",
                    "id": "8bee9046-f3c7-41f1-ac05-4c63e114db0e",
                    "path": "<Gamepad>/dpad/up",
                    "interactions": "",
                    "processors": "",
                    "groups": "Gamepad",
                    "action": "Navigate",
                    "isComposite": false,
                    "isPartOfComposite": true
                },
                {
                    "name": "down",
                    "id": "bdc5f947-3090-4e1d-a6c8-1719e405ac49",
                    "path": "<Gamepad>/dpad/down",
                    "interactions": "",
                    "processors": "",
                    "groups": "Gamepad",
                    "action": "Navigate",
                    "isComposite": false,
                    "isPartOfComposite": true
                },
                {
                    "name": "left",
                    "id": "6a53cb8a-0856-4f56-a84f-74ab88c0c7cf",
                    "path": "<Gamepad>/dpad/left",
                    "interactions": "",
                    "processors": "",
                    "groups": "Gamepad",
                    "action": "Navigate",
                    "isComposite": false,
                    "isPartOfComposite": true
                },
                {
                    "name": "right",
                    "id": "29274cc4-9701-4ce4-99f4-67abbcba6bb2",
                    "path": "<Gamepad>/dpad/right",
                    "interactions": "",
                    "processors": "",
                    "groups": "Gamepad",
                    "action": "Navigate",
                    "isComposite": false,
                    "isPartOfComposite": true
                },
                {
                    "name": "WASD",
                    "id": "fd3eebc3-a07f-4a29-8135-61e6fd784f7d",
                    "path": "2DVector",
                    "interactions": "",
                    "processors": "",
                    "groups": "",
                    "action": "Navigate",
                    "isComposite": true,
                    "isPartOfComposite": false
                },
                {
                    "name": "up",
                    "id": "eb96cd71-93b5-4962-b0c0-ee2397c0e2dd",
                    "path": "<Keyboard>/w",
                    "interactions": "",
                    "processors": "",
                    "groups": "Keyboard",
                    "action": "Navigate",
                    "isComposite": false,
                    "isPartOfComposite": true
                },
                {
                    "name": "down",
                    "id": "032c51ad-e1bc-41ef-a78e-62e84899455d",
                    "path": "<Keyboard>/s",
                    "interactions": "",
                    "processors": "",
                    "groups": "Keyboard",
                    "action": "Navigate",
                    "isComposite": false,
                    "isPartOfComposite": true
                },
                {
                    "name": "left",
                    "id": "9e09cee8-ca0b-492a-a9dc-f3789c0752e7",
                    "path": "<Keyboard>/a",
                    "interactions": "",
                    "processors": "",
                    "groups": "Keyboard",
                    "action": "Navigate",
                    "isComposite": false,
                    "isPartOfComposite": true
                },
                {
                    "name": "right",
                    "id": "47b5a712-33e3-4d13-88a9-c46801dd1b22",
                    "path": "<Keyboard>/d",
                    "interactions": "",
                    "processors": "",
                    "groups": "Keyboard",
                    "action": "Navigate",
                    "isComposite": false,
                    "isPartOfComposite": true
                },
                {
                    "name": "Arrows",
                    "id": "247b7e51-9ad0-414f-8d3b-7f116173731f",
                    "path": "2DVector",
                    "interactions": "",
                    "processors": "",
                    "groups": "",
                    "action": "Navigate",
                    "isComposite": true,
                    "isPartOfComposite": false
                },
                {
                    "name": "up",
                    "id": "0405df30-3a73-4d88-ae31-8716ad0d8373",
                    "path": "<Keyboard>/upArrow",
                    "interactions": "",
                    "processors": "",
                    "groups": "Keyboard",
                    "action": "Navigate",
                    "isComposite": false,
                    "isPartOfComposite": true
                },
                {
                    "name": "down",
                    "id": "7befdac4-83e9-4837-93b4-c1c7627f3b76",
                    "path": "<Keyboard>/downArrow",
                    "interactions": "",
                    "processors": "",
                    "groups": "Keyboard",
                    "action": "Navigate",
                    "isComposite": false,
                    "isPartOfComposite": true
                },
                {
                    "name": "left",
                    "id": "6e583a43-96c6-4f79-96dd-feb4c660c515",
                    "path": "<Keyboard>/leftArrow",
                    "interactions": "",
                    "processors": "",
                    "groups": "Keyboard",
                    "action": "Navigate",
                    "isComposite": false,
                    "isPartOfComposite": true
                },
                {
                    "name": "right",
                    "id": "c0740d45-72c0-431d-a72e-f01dea0874f1",
                    "path": "<Keyboard>/rightArrow",
                    "interactions": "",
                    "processors": "",
                    "groups": "Keyboard",
                    "action": "Navigate",
                    "isComposite": false,
                    "isPartOfComposite": true
                },
                {
                    "name": "",
                    "id": "a199483f-5255-485c-a22a-e57dcd3de8ae",
                    "path": "<Gamepad>/buttonEast",
                    "interactions": "",
                    "processors": "",
                    "groups": "Gamepad",
                    "action": "Cancel",
                    "isComposite": false,
                    "isPartOfComposite": false
                },
                {
                    "name": "",
                    "id": "12ac466a-d7ec-49cc-a065-597265f77d4e",
                    "path": "<Keyboard>/escape",
                    "interactions": "",
                    "processors": "",
                    "groups": "Keyboard",
                    "action": "Cancel",
                    "isComposite": false,
                    "isPartOfComposite": false
                },
                {
                    "name": "",
                    "id": "03607e1e-eeff-4aa2-8feb-1a77e152c53d",
                    "path": "<Mouse>/position",
                    "interactions": "",
                    "processors": "",
                    "groups": "Keyboard",
                    "action": "Point",
                    "isComposite": false,
                    "isPartOfComposite": false
                },
                {
                    "name": "",
                    "id": "6a23a014-01b8-427c-8f9e-db87740c2cb8",
                    "path": "<Mouse>/leftButton",
                    "interactions": "",
                    "processors": "",
                    "groups": "Keyboard",
                    "action": "Click",
                    "isComposite": false,
                    "isPartOfComposite": false
                },
                {
                    "name": "",
                    "id": "ae30774d-2424-45c7-a67b-73a57b37fa57",
                    "path": "<Keyboard>/escape",
                    "interactions": "",
                    "processors": "",
                    "groups": "Keyboard",
                    "action": "GoBack",
                    "isComposite": false,
                    "isPartOfComposite": false
                },
                {
                    "name": "",
                    "id": "b30d017a-1682-4f77-9fc7-1f11cefc5aac",
                    "path": "<Gamepad>/buttonEast",
                    "interactions": "",
                    "processors": "",
                    "groups": "Gamepad",
                    "action": "GoBack",
                    "isComposite": false,
                    "isPartOfComposite": false
                },
                {
                    "name": "",
                    "id": "e7608624-9475-415d-b212-4da2dd320ed8",
                    "path": "<Gamepad>/start",
                    "interactions": "",
                    "processors": "",
                    "groups": "Gamepad",
                    "action": "Pause",
                    "isComposite": false,
                    "isPartOfComposite": false
                },
                {
                    "name": "",
                    "id": "7ff4689b-3538-4267-8430-4c812579c615",
                    "path": "<Keyboard>/enter",
                    "interactions": "",
                    "processors": "",
                    "groups": "Keyboard",
                    "action": "Pause",
                    "isComposite": false,
                    "isPartOfComposite": false
                }
            ]
        },
        {
            "name": "Player",
            "id": "9284e1fa-8f76-41da-ad60-44e43fc8f6ab",
            "actions": [
                {
                    "name": "Move",
                    "type": "Value",
                    "id": "326d2b13-a37a-43b8-be47-e46f060e165f",
                    "expectedControlType": "Vector2",
                    "processors": "",
                    "interactions": ""
                },
                {
                    "name": "Aim",
                    "type": "Value",
                    "id": "b7514198-b77a-4362-b999-f9089a25ffa0",
                    "expectedControlType": "Vector2",
                    "processors": "",
                    "interactions": ""
                },
                {
                    "name": "InteractHold",
                    "type": "PassThrough",
                    "id": "1e47ab1a-4144-4de9-bbaf-92e40624f654",
                    "expectedControlType": "",
                    "processors": "",
                    "interactions": ""
                },
                {
                    "name": "InteractPress",
                    "type": "Button",
                    "id": "5c54586f-6d4c-42b5-88f9-4c9d6e318d30",
                    "expectedControlType": "Button",
                    "processors": "",
                    "interactions": "Tap"
                },
                {
                    "name": "Run",
                    "type": "PassThrough",
                    "id": "9110b843-9449-42eb-9f4e-bbb57f2b4cc1",
                    "expectedControlType": "",
                    "processors": "",
                    "interactions": ""
                },
                {
                    "name": "Special",
                    "type": "Value",
                    "id": "fb8d4ef9-57e7-4773-8312-e0fa1198623c",
                    "expectedControlType": "",
                    "processors": "",
                    "interactions": "Press"
                },
                {
                    "name": "PrimaryAction",
                    "type": "Value",
                    "id": "f91c2689-9758-4f84-9569-90e328cdda26",
                    "expectedControlType": "",
                    "processors": "",
                    "interactions": ""
                },
                {
                    "name": "SecondaryAction",
                    "type": "Value",
                    "id": "122ad8d3-3523-41ea-a31a-fa2adb80cd27",
                    "expectedControlType": "Button",
                    "processors": "",
                    "interactions": ""
                },
                {
                    "name": "Dash",
                    "type": "Button",
                    "id": "8cf98d8b-52fe-4493-9b7c-447da189eeb8",
                    "expectedControlType": "Button",
                    "processors": "",
                    "interactions": ""
                },
                {
                    "name": "Join",
                    "type": "Value",
                    "id": "7b858568-0451-45e8-bfc9-eee517be36d8",
                    "expectedControlType": "",
                    "processors": "",
                    "interactions": ""
                },
                {
                    "name": "Lock",
                    "type": "Button",
                    "id": "d686d5a2-b892-421e-88d7-cfd43c5bda45",
                    "expectedControlType": "",
                    "processors": "",
                    "interactions": ""
                },
                {
                    "name": "NextTarget",
                    "type": "Button",
                    "id": "96817caa-0c2f-4ae6-9dae-748bac8e557c",
                    "expectedControlType": "",
                    "processors": "",
                    "interactions": "Press"
                },
                {
                    "name": "PreviousTarget",
                    "type": "Button",
                    "id": "4748e648-9806-47de-9597-abdbae5d7107",
                    "expectedControlType": "",
                    "processors": "",
                    "interactions": "Press"
                },
                {
                    "name": "Pause",
                    "type": "Button",
                    "id": "4cdcbf97-3f01-4799-bbda-d73edbb8ddac",
                    "expectedControlType": "Button",
                    "processors": "",
                    "interactions": ""
                },
                {
                    "name": "Drop...",
                    "type": "PassThrough",
                    "id": "74755c66-10ed-4bda-8855-37b14c50146c",
                    "expectedControlType": "Button",
                    "processors": "",
                    "interactions": ""
                },
                {
                    "name": "Drop Right",
                    "type": "Button",
                    "id": "f261010e-0020-48b9-9ef5-b1022e286a6d",
                    "expectedControlType": "Button",
                    "processors": "",
                    "interactions": ""
                },
                {
                    "name": "Drop Left",
                    "type": "Button",
                    "id": "94d87b4b-5d28-4eb2-8f32-bfbd7929c479",
                    "expectedControlType": "Button",
                    "processors": "",
                    "interactions": ""
                },
                {
                    "name": "Throw...",
                    "type": "PassThrough",
                    "id": "181cc779-7df8-4fb0-aad4-56302fe3e3fa",
                    "expectedControlType": "Button",
                    "processors": "",
                    "interactions": ""
                },
                {
                    "name": "Throw Right",
                    "type": "Button",
                    "id": "a97a42a6-2f5e-4fd0-b763-57f2f788c721",
                    "expectedControlType": "Button",
                    "processors": "",
                    "interactions": ""
                },
                {
                    "name": "Throw Left",
                    "type": "Button",
                    "id": "8eb61195-50b6-4b77-805f-fd32eb531a66",
                    "expectedControlType": "Button",
                    "processors": "",
                    "interactions": ""
                },
                {
                    "name": "Switch Item...",
                    "type": "PassThrough",
                    "id": "4ecd4d9b-57b4-4bc1-b338-4422b0417b89",
                    "expectedControlType": "Button",
                    "processors": "",
                    "interactions": ""
                },
                {
                    "name": "Switch Item Left",
                    "type": "PassThrough",
                    "id": "6ffaa8ed-4e64-4a08-98dd-51d16c6d2752",
                    "expectedControlType": "",
                    "processors": "",
                    "interactions": ""
                },
                {
                    "name": "Switch Item Right",
                    "type": "PassThrough",
                    "id": "7ac3e204-14d7-423e-afec-a58993f9bdb4",
                    "expectedControlType": "",
                    "processors": "",
                    "interactions": ""
                },
                {
                    "name": "Put away...",
                    "type": "PassThrough",
                    "id": "4966b9af-529b-42a6-b857-e42e0c2ec18c",
                    "expectedControlType": "Button",
                    "processors": "",
                    "interactions": ""
                },
                {
                    "name": "Put away Left",
                    "type": "Button",
                    "id": "ff504557-f01d-440b-a4a9-25e830053dd9",
                    "expectedControlType": "Button",
                    "processors": "",
                    "interactions": ""
                },
                {
                    "name": "Put away Right",
                    "type": "Button",
                    "id": "937ba27f-d477-40a3-8fac-cd452b1281a9",
                    "expectedControlType": "Button",
                    "processors": "",
                    "interactions": ""
                },
                {
                    "name": "ItemActions",
                    "type": "PassThrough",
                    "id": "19cda5b0-a9e5-43ea-a7f4-eb2111eac5a5",
                    "expectedControlType": "Dpad",
                    "processors": "",
                    "interactions": ""
                },
                {
                    "name": "Item Next",
                    "type": "Button",
                    "id": "4e7b6813-6901-4d54-9eb3-b5812499814f",
                    "expectedControlType": "Button",
                    "processors": "",
                    "interactions": "Tap"
                },
                {
                    "name": "Item Prev",
                    "type": "Button",
                    "id": "952cf93e-2152-454c-8718-2b03c3b299f1",
                    "expectedControlType": "Button",
                    "processors": "",
                    "interactions": "Tap"
                }
            ],
            "bindings": [
                {
                    "name": "",
                    "id": "a4857c7c-0b00-4b4b-82b7-5da4af23aed8",
                    "path": "<Gamepad>/leftStick",
                    "interactions": "",
                    "processors": "",
                    "groups": "Gamepad",
                    "action": "Move",
                    "isComposite": false,
                    "isPartOfComposite": false
                },
                {
                    "name": "WASD",
                    "id": "bcb0fff8-f324-4c6d-8b55-d6ec65b98a33",
                    "path": "2DVector",
                    "interactions": "",
                    "processors": "",
                    "groups": "",
                    "action": "Move",
                    "isComposite": true,
                    "isPartOfComposite": false
                },
                {
                    "name": "Up",
                    "id": "57782bd6-387d-4902-aae8-7b04cd8918fa",
                    "path": "<Keyboard>/w",
                    "interactions": "",
                    "processors": "",
                    "groups": "KeyboardScheme;Keyboard",
                    "action": "Move",
                    "isComposite": false,
                    "isPartOfComposite": true
                },
                {
                    "name": "Down",
                    "id": "23650ffc-3b76-46a7-a3de-3fe0bed182dc",
                    "path": "<Keyboard>/s",
                    "interactions": "",
                    "processors": "",
                    "groups": "KeyboardScheme;Keyboard",
                    "action": "Move",
                    "isComposite": false,
                    "isPartOfComposite": true
                },
                {
                    "name": "Left",
                    "id": "71878246-8063-48b0-9520-f06e623a63f7",
                    "path": "<Keyboard>/a",
                    "interactions": "",
                    "processors": "",
                    "groups": "KeyboardScheme;Keyboard",
                    "action": "Move",
                    "isComposite": false,
                    "isPartOfComposite": true
                },
                {
                    "name": "Right",
                    "id": "7aee2307-5948-4ba9-b12e-c48b4ea96bd6",
                    "path": "<Keyboard>/d",
                    "interactions": "",
                    "processors": "",
                    "groups": "KeyboardScheme;Keyboard",
                    "action": "Move",
                    "isComposite": false,
                    "isPartOfComposite": true
                },
                {
                    "name": "Arrows",
                    "id": "a066b53b-f3b1-4f0e-9056-c419e626bfbb",
                    "path": "2DVector",
                    "interactions": "",
                    "processors": "",
                    "groups": "",
                    "action": "Move",
                    "isComposite": true,
                    "isPartOfComposite": false
                },
                {
                    "name": "up",
                    "id": "d783cabb-32db-4ccc-944d-db285572e36d",
                    "path": "<Keyboard>/upArrow",
                    "interactions": "",
                    "processors": "",
                    "groups": "KeyboardScheme;Keyboard",
                    "action": "Move",
                    "isComposite": false,
                    "isPartOfComposite": true
                },
                {
                    "name": "down",
                    "id": "a6139419-1be1-41f4-971b-86eda5c11006",
                    "path": "<Keyboard>/downArrow",
                    "interactions": "",
                    "processors": "",
                    "groups": "KeyboardScheme;Keyboard",
                    "action": "Move",
                    "isComposite": false,
                    "isPartOfComposite": true
                },
                {
                    "name": "left",
                    "id": "1690ef8f-f7ee-403e-ac90-bba846a2562c",
                    "path": "<Keyboard>/leftArrow",
                    "interactions": "",
                    "processors": "",
                    "groups": "KeyboardScheme;Keyboard",
                    "action": "Move",
                    "isComposite": false,
                    "isPartOfComposite": true
                },
                {
                    "name": "right",
                    "id": "2d20cc31-208d-4d8f-886a-60a617446d44",
                    "path": "<Keyboard>/rightArrow",
                    "interactions": "",
                    "processors": "",
                    "groups": "KeyboardScheme;Keyboard",
                    "action": "Move",
                    "isComposite": false,
                    "isPartOfComposite": true
                },
                {
                    "name": "",
                    "id": "1b6b0b7a-6fe5-4e6e-8ed0-d007bbfcf55d",
                    "path": "<Gamepad>/rightStick",
                    "interactions": "",
                    "processors": "",
                    "groups": ";Gamepad",
                    "action": "Aim",
                    "isComposite": false,
                    "isPartOfComposite": false
                },
                {
                    "name": "",
                    "id": "ba052711-04ea-44b5-b4d6-b7e53a7dc9bf",
                    "path": "<Mouse>/position",
                    "interactions": "",
                    "processors": "MouseAim",
                    "groups": "KeyboardScheme;Keyboard",
                    "action": "Aim",
                    "isComposite": false,
                    "isPartOfComposite": false
                },
                {
                    "name": "",
                    "id": "45e4db40-bb71-4416-a4a3-26ae9eec0ca9",
                    "path": "<Gamepad>/buttonSouth",
                    "interactions": "",
                    "processors": "",
                    "groups": "Gamepad",
                    "action": "InteractHold",
                    "isComposite": false,
                    "isPartOfComposite": false
                },
                {
                    "name": "",
                    "id": "1d78c188-2898-4018-821a-579bda3cc181",
                    "path": "<Keyboard>/space",
                    "interactions": "",
                    "processors": "",
                    "groups": "KeyboardScheme;Keyboard",
                    "action": "InteractHold",
                    "isComposite": false,
                    "isPartOfComposite": false
                },
                {
                    "name": "",
                    "id": "093cdc40-dd36-42d6-92b4-718a16d5499b",
                    "path": "<Gamepad>/rightTrigger",
                    "interactions": "",
                    "processors": "",
                    "groups": ";Gamepad",
                    "action": "Special",
                    "isComposite": false,
                    "isPartOfComposite": false
                },
                {
                    "name": "",
                    "id": "a32f00b2-9eca-4caf-a0ec-7dc461efdb09",
                    "path": "<Gamepad>/rightShoulder",
                    "interactions": "",
                    "processors": "",
                    "groups": ";Gamepad",
                    "action": "PrimaryAction",
                    "isComposite": false,
                    "isPartOfComposite": false
                },
                {
                    "name": "",
                    "id": "6bc595a8-2317-4121-839b-b627882bc716",
                    "path": "<Mouse>/leftButton",
                    "interactions": "",
                    "processors": "",
                    "groups": "KeyboardScheme;Keyboard",
                    "action": "PrimaryAction",
                    "isComposite": false,
                    "isPartOfComposite": false
                },
                {
                    "name": "",
                    "id": "822e144d-e834-48c0-b7af-020694a69858",
                    "path": "<Gamepad>/leftShoulder",
                    "interactions": "",
                    "processors": "",
                    "groups": "Gamepad",
                    "action": "SecondaryAction",
                    "isComposite": false,
                    "isPartOfComposite": false
                },
                {
                    "name": "",
                    "id": "02bfe04a-4524-4481-a1e1-222201c74f93",
                    "path": "<Mouse>/rightButton",
                    "interactions": "",
                    "processors": "",
                    "groups": "KeyboardScheme;Keyboard",
                    "action": "SecondaryAction",
                    "isComposite": false,
                    "isPartOfComposite": false
                },
                {
                    "name": "",
                    "id": "7ce5ad14-075a-4f16-b21b-bf69fd1bf753",
                    "path": "<Gamepad>/leftTrigger",
                    "interactions": "",
                    "processors": "",
                    "groups": "Gamepad",
                    "action": "Dash",
                    "isComposite": false,
                    "isPartOfComposite": false
                },
                {
                    "name": "",
                    "id": "d526f485-a255-41dd-93b6-63246d56a8e4",
                    "path": "<Gamepad>/buttonEast",
                    "interactions": "",
                    "processors": "",
                    "groups": "Gamepad",
                    "action": "Dash",
                    "isComposite": false,
                    "isPartOfComposite": false
                },
                {
                    "name": "",
                    "id": "90d19f5b-270e-49df-895b-92b22cfe812e",
                    "path": "<Keyboard>/leftShift",
                    "interactions": "",
                    "processors": "",
                    "groups": "KeyboardScheme;Keyboard",
                    "action": "Dash",
                    "isComposite": false,
                    "isPartOfComposite": false
                },
                {
                    "name": "",
                    "id": "292d668c-a6e6-48c7-8831-d07857cae7f3",
                    "path": "<Gamepad>/buttonSouth",
                    "interactions": "",
                    "processors": "",
                    "groups": "Gamepad",
                    "action": "Join",
                    "isComposite": false,
                    "isPartOfComposite": false
                },
                {
                    "name": "",
                    "id": "1ef18ed6-e1e5-4a35-b31b-bdb07fbc7b9a",
                    "path": "<Gamepad>/start",
                    "interactions": "",
                    "processors": "",
                    "groups": ";Gamepad",
                    "action": "Join",
                    "isComposite": false,
                    "isPartOfComposite": false
                },
                {
                    "name": "",
                    "id": "e2778034-af82-4524-a32d-a2a120114f39",
                    "path": "<Keyboard>/enter",
                    "interactions": "",
                    "processors": "",
                    "groups": ";KeyboardScheme",
                    "action": "Join",
                    "isComposite": false,
                    "isPartOfComposite": false
                },
                {
                    "name": "",
                    "id": "6760874f-5e07-4855-a4f5-31adf63a1b0c",
                    "path": "<Gamepad>/rightStickPress",
                    "interactions": "",
                    "processors": "",
                    "groups": "Gamepad",
                    "action": "Lock",
                    "isComposite": false,
                    "isPartOfComposite": false
                },
                {
                    "name": "",
                    "id": "3b20a412-032d-4945-9991-7ec82f43a5a6",
                    "path": "<Mouse>/middleButton",
                    "interactions": "",
                    "processors": "",
                    "groups": "KeyboardScheme",
                    "action": "Lock",
                    "isComposite": false,
                    "isPartOfComposite": false
                },
                {
                    "name": "",
                    "id": "a24e991f-a9cd-40a9-8e71-2cdee8a85506",
                    "path": "<Gamepad>/rightStick/right",
                    "interactions": "",
                    "processors": "",
                    "groups": "Gamepad",
                    "action": "NextTarget",
                    "isComposite": false,
                    "isPartOfComposite": false
                },
                {
                    "name": "",
                    "id": "2b843df6-1c71-4c9e-8476-de4ff2fd9bee",
                    "path": "<Gamepad>/rightStick/left",
                    "interactions": "",
                    "processors": "",
                    "groups": "Gamepad",
                    "action": "PreviousTarget",
                    "isComposite": false,
                    "isPartOfComposite": false
                },
                {
                    "name": "",
                    "id": "afc630c2-dace-4d54-b934-c48d4d040601",
                    "path": "<Gamepad>/start",
                    "interactions": "",
                    "processors": "",
                    "groups": "Gamepad",
                    "action": "Pause",
                    "isComposite": false,
                    "isPartOfComposite": false
                },
                {
                    "name": "",
                    "id": "fe7a583c-5a05-4948-8620-ccebbe4aa7ce",
                    "path": "<Keyboard>/enter",
                    "interactions": "",
                    "processors": "",
                    "groups": "KeyboardScheme;Keyboard",
                    "action": "Pause",
                    "isComposite": false,
                    "isPartOfComposite": false
                },
                {
                    "name": "GamePad",
                    "id": "e31817ff-3323-4cac-a43e-15fb39e2825e",
                    "path": "ButtonWithOneModifier",
                    "interactions": "",
                    "processors": "",
                    "groups": "",
                    "action": "Drop Right",
                    "isComposite": true,
                    "isPartOfComposite": false
                },
                {
                    "name": "modifier",
                    "id": "7f7883b7-861b-42dc-84a8-5afa1b8fa431",
                    "path": "<Gamepad>/dpad/down",
                    "interactions": "",
                    "processors": "",
                    "groups": "Gamepad",
                    "action": "Drop Right",
                    "isComposite": false,
                    "isPartOfComposite": true
                },
                {
                    "name": "button",
                    "id": "103fd33f-e7e6-41fc-aeb7-352dccc2472c",
                    "path": "<Gamepad>/rightShoulder",
                    "interactions": "",
                    "processors": "",
                    "groups": "Gamepad",
                    "action": "Drop Right",
                    "isComposite": false,
                    "isPartOfComposite": true
                },
                {
                    "name": "Keyboard",
                    "id": "7cfd6232-5d01-42a2-b765-7550d08e672e",
                    "path": "ButtonWithOneModifier",
                    "interactions": "",
                    "processors": "",
                    "groups": "",
                    "action": "Drop Right",
                    "isComposite": true,
                    "isPartOfComposite": false
                },
                {
                    "name": "modifier",
                    "id": "570569c9-02bd-4371-be80-bbc89db7ca2f",
                    "path": "<Keyboard>/f",
                    "interactions": "",
                    "processors": "",
                    "groups": "",
                    "action": "Drop Right",
                    "isComposite": false,
                    "isPartOfComposite": true
                },
                {
                    "name": "button",
                    "id": "8985e174-9ac0-454e-8c05-abc2810aa6d0",
                    "path": "<Mouse>/leftButton",
                    "interactions": "",
                    "processors": "",
                    "groups": "Keyboard",
                    "action": "Drop Right",
                    "isComposite": false,
                    "isPartOfComposite": true
                },
                {
                    "name": "GamePad",
                    "id": "2d8cc983-c966-40fa-9ad0-8d1e46c00a4f",
                    "path": "ButtonWithOneModifier",
                    "interactions": "",
                    "processors": "",
                    "groups": "",
                    "action": "Drop Left",
                    "isComposite": true,
                    "isPartOfComposite": false
                },
                {
                    "name": "modifier",
                    "id": "87c5226d-5209-4892-9059-5edb2331884b",
                    "path": "<Gamepad>/dpad/down",
                    "interactions": "",
                    "processors": "",
                    "groups": "Gamepad",
                    "action": "Drop Left",
                    "isComposite": false,
                    "isPartOfComposite": true
                },
                {
                    "name": "button",
                    "id": "e1175939-54ed-4255-98f5-72af7875e09c",
                    "path": "<Gamepad>/leftShoulder",
                    "interactions": "",
                    "processors": "",
                    "groups": "Gamepad",
                    "action": "Drop Left",
                    "isComposite": false,
                    "isPartOfComposite": true
                },
                {
                    "name": "Keyboard",
                    "id": "bbb4082b-a54d-4416-a5c9-32723fffde73",
                    "path": "ButtonWithOneModifier",
                    "interactions": "",
                    "processors": "",
                    "groups": "",
                    "action": "Drop Left",
                    "isComposite": true,
                    "isPartOfComposite": false
                },
                {
                    "name": "modifier",
                    "id": "8b19baee-8819-462a-8981-7edfbac4bb64",
                    "path": "<Keyboard>/f",
                    "interactions": "",
                    "processors": "",
                    "groups": "",
                    "action": "Drop Left",
                    "isComposite": false,
                    "isPartOfComposite": true
                },
                {
                    "name": "button",
                    "id": "8fcc39b9-afa2-4f87-aed3-357ec1301c83",
                    "path": "<Mouse>/rightButton",
                    "interactions": "",
                    "processors": "",
                    "groups": "Keyboard",
                    "action": "Drop Left",
                    "isComposite": false,
                    "isPartOfComposite": true
                },
                {
                    "name": "GamePad",
                    "id": "cc615d43-1dc8-4ca4-a5ed-db07ca7fc8a9",
                    "path": "ButtonWithOneModifier",
                    "interactions": "",
                    "processors": "",
                    "groups": "",
                    "action": "Throw Left",
                    "isComposite": true,
                    "isPartOfComposite": false
                },
                {
                    "name": "modifier",
                    "id": "b281fba9-bc2c-4da9-90d3-a1a70230b9c4",
                    "path": "<Gamepad>/dpad/up",
                    "interactions": "",
                    "processors": "",
                    "groups": "Gamepad",
                    "action": "Throw Left",
                    "isComposite": false,
                    "isPartOfComposite": true
                },
                {
                    "name": "button",
                    "id": "7e0e8fe1-f49b-4569-948c-1d5c2c8408d6",
                    "path": "<Gamepad>/leftShoulder",
                    "interactions": "",
                    "processors": "",
                    "groups": "Gamepad",
                    "action": "Throw Left",
                    "isComposite": false,
                    "isPartOfComposite": true
                },
                {
                    "name": "Keyboard",
                    "id": "1ce18722-1dd7-41bf-b78b-9b696150f14b",
                    "path": "ButtonWithOneModifier",
                    "interactions": "",
                    "processors": "",
                    "groups": "",
                    "action": "Throw Left",
                    "isComposite": true,
                    "isPartOfComposite": false
                },
                {
                    "name": "modifier",
                    "id": "cb2274de-c32b-4b7d-a6a5-d8613a67ede8",
                    "path": "<Keyboard>/q",
                    "interactions": "",
                    "processors": "",
                    "groups": "",
                    "action": "Throw Left",
                    "isComposite": false,
                    "isPartOfComposite": true
                },
                {
                    "name": "button",
                    "id": "4004af11-f4b0-46d4-891f-dbee40518ae8",
                    "path": "<Mouse>/rightButton",
                    "interactions": "",
                    "processors": "",
                    "groups": "Keyboard",
                    "action": "Throw Left",
                    "isComposite": false,
                    "isPartOfComposite": true
                },
                {
                    "name": "GamePad",
                    "id": "95cfc127-a7a0-4fb2-83e6-9c312d4c471f",
                    "path": "ButtonWithOneModifier",
                    "interactions": "",
                    "processors": "",
                    "groups": "",
                    "action": "Throw Right",
                    "isComposite": true,
                    "isPartOfComposite": false
                },
                {
                    "name": "modifier",
                    "id": "bf4aaa38-49b5-422d-8918-f4cf4afc455c",
                    "path": "<Gamepad>/dpad/up",
                    "interactions": "",
                    "processors": "",
                    "groups": "Gamepad",
                    "action": "Throw Right",
                    "isComposite": false,
                    "isPartOfComposite": true
                },
                {
                    "name": "button",
                    "id": "bc4306ef-55fe-4703-b554-2b085412b68e",
                    "path": "<Gamepad>/rightShoulder",
                    "interactions": "",
                    "processors": "",
                    "groups": "Gamepad",
                    "action": "Throw Right",
                    "isComposite": false,
                    "isPartOfComposite": true
                },
                {
                    "name": "Keyboard",
                    "id": "58ab4f00-e40b-480d-b68d-65a701619836",
                    "path": "ButtonWithOneModifier",
                    "interactions": "",
                    "processors": "",
                    "groups": "",
                    "action": "Throw Right",
                    "isComposite": true,
                    "isPartOfComposite": false
                },
                {
                    "name": "modifier",
                    "id": "2091f85b-35b5-4b1e-aaba-df76c3be6585",
                    "path": "<Keyboard>/q",
                    "interactions": "",
                    "processors": "",
                    "groups": "",
                    "action": "Throw Right",
                    "isComposite": false,
                    "isPartOfComposite": true
                },
                {
                    "name": "button",
                    "id": "090ad8f1-75e8-4e3c-b188-75843799a202",
                    "path": "<Mouse>/leftButton",
                    "interactions": "",
                    "processors": "",
                    "groups": "Keyboard",
                    "action": "Throw Right",
                    "isComposite": false,
                    "isPartOfComposite": true
                },
                {
                    "name": "GamePad",
                    "id": "6787929a-9afb-4aa3-9349-aa64642b5c08",
                    "path": "ButtonWithOneModifier",
                    "interactions": "",
                    "processors": "",
                    "groups": "",
                    "action": "Switch Item Right",
                    "isComposite": true,
                    "isPartOfComposite": false
                },
                {
                    "name": "modifier",
                    "id": "594a9051-046a-4fb7-bcd7-38b547c200a6",
                    "path": "<Gamepad>/dpad/left",
                    "interactions": "",
                    "processors": "",
                    "groups": "Gamepad",
                    "action": "Switch Item Right",
                    "isComposite": false,
                    "isPartOfComposite": true
                },
                {
                    "name": "button",
                    "id": "72aefda4-bb38-4f93-ab2d-8be31929f842",
                    "path": "<Gamepad>/rightShoulder",
                    "interactions": "",
                    "processors": "",
                    "groups": "Gamepad",
                    "action": "Switch Item Right",
                    "isComposite": false,
                    "isPartOfComposite": true
                },
                {
                    "name": "Keyboard",
                    "id": "33082ab2-6ef6-47ca-ab67-d982784dc6a4",
                    "path": "ButtonWithOneModifier",
                    "interactions": "",
                    "processors": "",
                    "groups": "",
                    "action": "Switch Item Right",
                    "isComposite": true,
                    "isPartOfComposite": false
                },
                {
                    "name": "modifier",
                    "id": "2076d099-564d-4f20-8c18-93a02833fd57",
                    "path": "<Keyboard>/tab",
                    "interactions": "",
                    "processors": "",
                    "groups": "",
                    "action": "Switch Item Right",
                    "isComposite": false,
                    "isPartOfComposite": true
                },
                {
                    "name": "button",
                    "id": "aeb600bf-bd57-45c6-bd1b-4986fe9440e4",
                    "path": "<Mouse>/leftButton",
                    "interactions": "",
                    "processors": "",
                    "groups": "Keyboard",
                    "action": "Switch Item Right",
                    "isComposite": false,
                    "isPartOfComposite": true
                },
                {
                    "name": "GamePad",
                    "id": "180178ec-9e21-4848-b253-5995e0135260",
                    "path": "ButtonWithOneModifier",
                    "interactions": "",
                    "processors": "",
                    "groups": "",
                    "action": "Switch Item Left",
                    "isComposite": true,
                    "isPartOfComposite": false
                },
                {
                    "name": "modifier",
                    "id": "52c8f2ec-26cc-4d8a-b5e2-95d5fa929411",
                    "path": "<Gamepad>/dpad/left",
                    "interactions": "",
                    "processors": "",
                    "groups": "Gamepad",
                    "action": "Switch Item Left",
                    "isComposite": false,
                    "isPartOfComposite": true
                },
                {
                    "name": "button",
                    "id": "ff33d97f-33d0-4091-becc-2db9f461c273",
                    "path": "<Gamepad>/leftShoulder",
                    "interactions": "",
                    "processors": "",
                    "groups": "Gamepad",
                    "action": "Switch Item Left",
                    "isComposite": false,
                    "isPartOfComposite": true
                },
                {
                    "name": "Keyboard",
                    "id": "dd7ccea0-4f94-4443-91c7-7844f887a0fc",
                    "path": "ButtonWithOneModifier",
                    "interactions": "",
                    "processors": "",
                    "groups": "",
                    "action": "Switch Item Left",
                    "isComposite": true,
                    "isPartOfComposite": false
                },
                {
                    "name": "modifier",
                    "id": "a1f2dcb0-4708-4c8c-a185-378ad01f289b",
                    "path": "<Keyboard>/tab",
                    "interactions": "",
                    "processors": "",
                    "groups": "",
                    "action": "Switch Item Left",
                    "isComposite": false,
                    "isPartOfComposite": true
                },
                {
                    "name": "button",
                    "id": "635a8f94-8441-4893-a884-0c4e6667711b",
                    "path": "<Mouse>/rightButton",
                    "interactions": "",
                    "processors": "",
                    "groups": "Keyboard",
                    "action": "Switch Item Left",
                    "isComposite": false,
                    "isPartOfComposite": true
                },
                {
                    "name": "GamePad",
                    "id": "e96923d6-4cf7-468b-a4f6-b7eeb31ac3af",
                    "path": "ButtonWithOneModifier",
                    "interactions": "",
                    "processors": "",
                    "groups": "",
                    "action": "Put away Right",
                    "isComposite": true,
                    "isPartOfComposite": false
                },
                {
                    "name": "modifier",
                    "id": "917c28c2-e12e-434f-983a-bb5586f25820",
                    "path": "<Gamepad>/dpad/right",
                    "interactions": "",
                    "processors": "",
                    "groups": "Gamepad",
                    "action": "Put away Right",
                    "isComposite": false,
                    "isPartOfComposite": true
                },
                {
                    "name": "button",
                    "id": "d5975d53-d3b3-43dd-ac3c-201138800f37",
                    "path": "<Gamepad>/rightShoulder",
                    "interactions": "",
                    "processors": "",
                    "groups": "Gamepad",
                    "action": "Put away Right",
                    "isComposite": false,
                    "isPartOfComposite": true
                },
                {
                    "name": "Keyboard",
                    "id": "5e709d00-9c67-4ced-a31d-d5f1a6dfa7c4",
                    "path": "ButtonWithOneModifier",
                    "interactions": "",
                    "processors": "",
                    "groups": "",
                    "action": "Put away Right",
                    "isComposite": true,
                    "isPartOfComposite": false
                },
                {
                    "name": "modifier",
                    "id": "5f6e4e77-7e0c-4ad1-87c7-a32faa4ca169",
                    "path": "<Keyboard>/c",
                    "interactions": "",
                    "processors": "",
                    "groups": "",
                    "action": "Put away Right",
                    "isComposite": false,
                    "isPartOfComposite": true
                },
                {
                    "name": "button",
                    "id": "faa88bb0-90e3-4cdc-9881-5005b78dba1d",
                    "path": "<Mouse>/leftButton",
                    "interactions": "",
                    "processors": "",
                    "groups": "Keyboard",
                    "action": "Put away Right",
                    "isComposite": false,
                    "isPartOfComposite": true
                },
                {
                    "name": "GamePad",
                    "id": "0cd75cc9-fb5c-46be-b3c5-fc51327d97d8",
                    "path": "ButtonWithOneModifier",
                    "interactions": "",
                    "processors": "",
                    "groups": "",
                    "action": "Put away Left",
                    "isComposite": true,
                    "isPartOfComposite": false
                },
                {
                    "name": "modifier",
                    "id": "0c3e8d15-b9f7-4f21-b989-27b3945475f0",
                    "path": "<Gamepad>/dpad/right",
                    "interactions": "",
                    "processors": "",
                    "groups": "Gamepad",
                    "action": "Put away Left",
                    "isComposite": false,
                    "isPartOfComposite": true
                },
                {
                    "name": "button",
                    "id": "f993b489-5706-4c27-a632-47552a8f49cb",
                    "path": "<Gamepad>/leftShoulder",
                    "interactions": "",
                    "processors": "",
                    "groups": "Gamepad",
                    "action": "Put away Left",
                    "isComposite": false,
                    "isPartOfComposite": true
                },
                {
                    "name": "Keyboard",
                    "id": "3e674110-c4b0-4024-a13c-52a877a01a23",
                    "path": "ButtonWithOneModifier",
                    "interactions": "",
                    "processors": "",
                    "groups": "",
                    "action": "Put away Left",
                    "isComposite": true,
                    "isPartOfComposite": false
                },
                {
                    "name": "modifier",
                    "id": "0df728ee-f62f-4b2a-98ec-b34e8c756762",
                    "path": "<Keyboard>/c",
                    "interactions": "",
                    "processors": "",
                    "groups": "",
                    "action": "Put away Left",
                    "isComposite": false,
                    "isPartOfComposite": true
                },
                {
                    "name": "button",
                    "id": "a871ca77-05f4-4f0b-9b5b-23edecc9cb2c",
                    "path": "<Mouse>/rightButton",
                    "interactions": "",
                    "processors": "",
                    "groups": "Keyboard",
                    "action": "Put away Left",
                    "isComposite": false,
                    "isPartOfComposite": true
                },
                {
                    "name": "",
                    "id": "68a16add-7482-43f6-8d9b-38972804dc60",
                    "path": "<Gamepad>/buttonSouth",
                    "interactions": "",
                    "processors": "",
                    "groups": "Gamepad",
                    "action": "Run",
                    "isComposite": false,
                    "isPartOfComposite": false
                },
                {
                    "name": "",
                    "id": "5d9470c4-412c-4fa7-b54d-eea3bca81cd5",
                    "path": "<Keyboard>/space",
                    "interactions": "",
                    "processors": "",
                    "groups": "KeyboardScheme;Keyboard",
                    "action": "Run",
                    "isComposite": false,
                    "isPartOfComposite": false
                },
                {
                    "name": "",
                    "id": "81a41733-3db5-4d78-998a-addc9f768380",
                    "path": "<Gamepad>/dpad",
                    "interactions": "",
                    "processors": "",
                    "groups": "Gamepad",
                    "action": "ItemActions",
                    "isComposite": false,
                    "isPartOfComposite": false
                },
                {
                    "name": "",
                    "id": "52041ef6-7abf-42da-9d05-bfc36a792cb4",
                    "path": "<Gamepad>/buttonSouth",
                    "interactions": "",
                    "processors": "",
                    "groups": "Gamepad",
                    "action": "InteractPress",
                    "isComposite": false,
                    "isPartOfComposite": false
                },
                {
                    "name": "",
                    "id": "8ee46f81-0bb4-4e9f-860a-c31dfc12d1b7",
                    "path": "<Keyboard>/space",
                    "interactions": "",
                    "processors": "",
                    "groups": "KeyboardScheme;Keyboard",
                    "action": "InteractPress",
                    "isComposite": false,
                    "isPartOfComposite": false
                },
                {
                    "name": "",
                    "id": "23a58ce9-2d69-4c3f-a697-f1e8d1ce7e42",
                    "path": "<Gamepad>/rightStick/right",
                    "interactions": "",
                    "processors": "",
                    "groups": "",
                    "action": "Item Next",
                    "isComposite": false,
                    "isPartOfComposite": false
                },
                {
                    "name": "",
                    "id": "c132eba3-fff7-40f8-8d0a-f121fa2ed04b",
                    "path": "<Gamepad>/rightStick/up",
                    "interactions": "",
                    "processors": "",
                    "groups": "",
                    "action": "Item Next",
                    "isComposite": false,
                    "isPartOfComposite": false
                },
                {
                    "name": "",
                    "id": "fbf7acc4-ef6f-412e-90e0-cd36c4afa3f7",
                    "path": "<Gamepad>/rightStick/left",
                    "interactions": "",
                    "processors": "",
                    "groups": "",
                    "action": "Item Prev",
                    "isComposite": false,
                    "isPartOfComposite": false
                },
                {
                    "name": "",
                    "id": "15cf8ee7-010c-430f-8b70-d00333231744",
                    "path": "<Gamepad>/rightStick/down",
                    "interactions": "",
                    "processors": "",
                    "groups": "",
                    "action": "Item Prev",
                    "isComposite": false,
                    "isPartOfComposite": false
                },
                {
                    "name": "",
                    "id": "8665b2fd-2dec-46f1-966c-fd6c365eebb2",
                    "path": "<Gamepad>/dpad/up",
                    "interactions": "",
                    "processors": "",
                    "groups": "Gamepad",
                    "action": "Throw...",
                    "isComposite": false,
                    "isPartOfComposite": false
                },
                {
                    "name": "",
                    "id": "5eb652f3-010e-4834-8edc-20db7b056442",
                    "path": "<Gamepad>/dpad/right",
                    "interactions": "",
                    "processors": "",
                    "groups": "Gamepad",
                    "action": "Put away...",
                    "isComposite": false,
                    "isPartOfComposite": false
                },
                {
                    "name": "",
                    "id": "b347c724-0150-4fed-8523-1fcd8d7ab870",
                    "path": "<Gamepad>/dpad/left",
                    "interactions": "",
                    "processors": "",
                    "groups": "Gamepad",
                    "action": "Switch Item...",
                    "isComposite": false,
                    "isPartOfComposite": false
                },
                {
                    "name": "",
                    "id": "f7befb6a-a7fc-49c3-b472-11777cb47313",
                    "path": "<Gamepad>/dpad/down",
                    "interactions": "",
                    "processors": "",
                    "groups": "Gamepad",
                    "action": "Drop...",
                    "isComposite": false,
                    "isPartOfComposite": false
                }
            ]
        }
    ],
    "controlSchemes": [
        {
            "name": "Keyboard",
            "bindingGroup": "Keyboard",
            "devices": [
                {
                    "devicePath": "<Keyboard>",
                    "isOptional": false,
                    "isOR": false
                },
                {
                    "devicePath": "<Mouse>",
                    "isOptional": false,
                    "isOR": false
                }
            ]
        },
        {
            "name": "Gamepad",
            "bindingGroup": "Gamepad",
            "devices": [
                {
                    "devicePath": "<Gamepad>",
                    "isOptional": false,
                    "isOR": false
                }
            ]
        }
    ]
}