%YAML 1.1
%TAG !u! tag:unity3d.com,2011:
--- !u!114 &-4423554626326397091
MonoBehaviour:
  m_ObjectHideFlags: 0
  m_CorrespondingSourceObject: {fileID: 0}
  m_PrefabInstance: {fileID: 0}
  m_PrefabAsset: {fileID: 0}
  m_GameObject: {fileID: 0}
  m_Enabled: 1
  m_EditorHideFlags: 0
  m_Script: {fileID: 11500000, guid: ac7ee75cc115d254697087167f46e543, type: 3}
  m_Name: OverheadUI
  m_EditorClassIdentifier: 
--- !u!114 &-3586288881049202293
MonoBehaviour:
  m_ObjectHideFlags: 0
  m_CorrespondingSourceObject: {fileID: 0}
  m_PrefabInstance: {fileID: 0}
  m_PrefabAsset: {fileID: 0}
  m_GameObject: {fileID: 0}
  m_Enabled: 1
  m_EditorHideFlags: 0
  m_Script: {fileID: 11500000, guid: ac7ee75cc115d254697087167f46e543, type: 3}
  m_Name: RightHand
  m_EditorClassIdentifier: 
--- !u!114 &-2852687174755510068
MonoBehaviour:
  m_ObjectHideFlags: 0
  m_CorrespondingSourceObject: {fileID: 0}
  m_PrefabInstance: {fileID: 0}
  m_PrefabAsset: {fileID: 0}
  m_GameObject: {fileID: 0}
  m_Enabled: 1
  m_EditorHideFlags: 0
  m_Script: {fileID: 11500000, guid: ac7ee75cc115d254697087167f46e543, type: 3}
  m_Name: LeftEye
  m_EditorClassIdentifier: 
--- !u!114 &11400000
MonoBehaviour:
  m_ObjectHideFlags: 0
  m_CorrespondingSourceObject: {fileID: 0}
  m_PrefabInstance: {fileID: 0}
  m_PrefabAsset: {fileID: 0}
  m_GameObject: {fileID: 0}
  m_Enabled: 1
  m_EditorHideFlags: 0
  m_Script: {fileID: 11500000, guid: 1eeca4fb693c1d04ea6fff1351b9c227, type: 3}
  m_Name: AttachmentIDs
  m_EditorClassIdentifier: 
  IDType:
    m_classRef: GameUtility.Data.TransformAttachment.AttachmentID, GameUtility
    m_fallbackScriptAsset: {fileID: 11500000, guid: ac7ee75cc115d254697087167f46e543, type: 3}
  Ids:
  - {fileID: 3753162608463777700}
  - {fileID: 3784456142670210056}
  - {fileID: -2852687174755510068}
  - {fileID: 728535027723802903}
  - {fileID: -4423554626326397091}
  - {fileID: 5364033951887784790}
  - {fileID: -3586288881049202293}
  m_folder: {fileID: 102900000, guid: dcea22089e20a6f449fc325ac9b55dd7, type: 3}
  m_namespaceStart: 3
  m_overrideNamespace: 
--- !u!114 &728535027723802903
MonoBehaviour:
  m_ObjectHideFlags: 0
  m_CorrespondingSourceObject: {fileID: 0}
  m_PrefabInstance: {fileID: 0}
  m_PrefabAsset: {fileID: 0}
  m_GameObject: {fileID: 0}
  m_Enabled: 1
  m_EditorHideFlags: 0
  m_Script: {fileID: 11500000, guid: ac7ee75cc115d254697087167f46e543, type: 3}
  m_Name: LeftHand
  m_EditorClassIdentifier: 
--- !u!114 &3753162608463777700
MonoBehaviour:
  m_ObjectHideFlags: 0
  m_CorrespondingSourceObject: {fileID: 0}
  m_PrefabInstance: {fileID: 0}
  m_PrefabAsset: {fileID: 0}
  m_GameObject: {fileID: 0}
  m_Enabled: 1
  m_EditorHideFlags: 0
  m_Script: {fileID: 11500000, guid: ac7ee75cc115d254697087167f46e543, type: 3}
  m_Name: Base
  m_EditorClassIdentifier: 
--- !u!114 &3784456142670210056
MonoBehaviour:
  m_ObjectHideFlags: 0
  m_CorrespondingSourceObject: {fileID: 0}
  m_PrefabInstance: {fileID: 0}
  m_PrefabAsset: {fileID: 0}
  m_GameObject: {fileID: 0}
  m_Enabled: 1
  m_EditorHideFlags: 0
  m_Script: {fileID: 11500000, guid: ac7ee75cc115d254697087167f46e543, type: 3}
  m_Name: Belly
  m_EditorClassIdentifier: 
--- !u!114 &5364033951887784790
MonoBehaviour:
  m_ObjectHideFlags: 0
  m_CorrespondingSourceObject: {fileID: 0}
  m_PrefabInstance: {fileID: 0}
  m_PrefabAsset: {fileID: 0}
  m_GameObject: {fileID: 0}
  m_Enabled: 1
  m_EditorHideFlags: 0
  m_Script: {fileID: 11500000, guid: ac7ee75cc115d254697087167f46e543, type: 3}
  m_Name: RightEye
  m_EditorClassIdentifier: 
