%YAML 1.1
%TAG !u! tag:unity3d.com,2011:
--- !u!114 &11400000
MonoBehaviour:
  m_ObjectHideFlags: 0
  m_CorrespondingSourceObject: {fileID: 0}
  m_PrefabInstance: {fileID: 0}
  m_PrefabAsset: {fileID: 0}
  m_GameObject: {fileID: 0}
  m_Enabled: 1
  m_EditorHideFlags: 0
  m_Script: {fileID: 11500000, guid: 8618165e6aeb30f4b9aa6b016121b1ff, type: 3}
  m_Name: NameGeneratorConfig
  m_EditorClassIdentifier: 
  m_shortSyllables:
  - ar
  - bi
  - co
  - do
  - fu
  - ga
  - ji
  - ku
  - la
  - ma
  - sa
  - to
  - wo
  - xu
  - yu
  - zi
  m_midSyllables:
  - ben
  - don
  - dor
  - fun
  - gon
  - gor
  - hun
  - jon
  - kon
  - lun
  - man
  - mum
  - nin
  - tut
  - win
  m_lastPart:
  - son
  - us
  - ius
  - y
  - eon
  m_minSyllables: 1
  m_maxSyllables: 4
  m_shortSyllableRatio: 0.6
  m_lastPartChance: 0.5
  m_testName: hunjon
